{
  "tables": [
    {
      "name": "watches",
      "version": "1.0",
      "primarykey": [
        {
          "name": "mac"
        }
      ],
      "columns": [
        {
          "name": "mac",
          "type": "TEXT"
        },
        {
          "name": "devicename",
          "type": "TEXT"
        },
        {
          "name": "firmware",
          "type": "TEXT"
        },
        {
          "name": "firmwareVersion",
          "type": "TEXT"
        }
      ]
    },
    {
      "name": "battery",
      "version": "1.0",
      "primarykey": [
        {
          "name": "date"
        },
        {
          "name": "mac"
        }
      ],
      "columns": [
        {
          "name": "date",
          "type": "TEXT"
        },
        {
          "name": "mac",
          "type": "TEXT"
        },
        {
          "name": "batteryLevel",
          "type": "INTEGER"
        }
      ]
    },
    {
      "name": "steps",
      "version": "1.0",
      "primarykey": [
        {
          "name": "date"
        },
        {
          "name": "mac"
        }
      ],
      "columns": [
        {
          "name": "date",
          "type": "TEXT"
        },
        {
          "name": "mac",
          "type": "TEXT"
        },
        {
          "name": "steps",
          "type": "INTEGER"
        }
      ]
    },
    {
      "name": "heartrate",
      "version": "1.0",
      "primarykey": [
        {
          "name": "date"
        },
        {
          "name": "mac"
        }
      ],
      "columns": [
        {
          "name": "date",
          "type": "TEXT"
        },
        {
          "name": "mac",
          "type": "TEXT"
        },
        {
          "name": "heartrate",
          "type": "INTEGER"
        }
      ]
    },
    {
      "name": "calories",
      "version": "1.0",
      "primarykey": [
        {
          "name": "date"
        },
        {
          "name": "mac"
        }
      ],
      "columns": [
        {
          "name": "date",
          "type": "TEXT"
        },{
          "name": "mac",
          "type": "TEXT"
        },{
          "name": "calories",
          "type": "INTEGER"
        }
      ]
    }
  ]
}
